reg_file/regfile_64_tb.vcd
$date
	Wed Apr 10 16:19:20 2024
$end

$version
	Synopsys VCS version R-2020.12-SP2_Full64
$end

$timescale
	1ps
$end

$comment Csum: 1 b5190c7827bdb0b1 $end


$scope module regfile_64_tb $end
$var reg 1 ! clk_tb $end
$var reg 1 " rst_tb $end
$var reg 1 # we_tb $end
$var reg 64 $ data_in_tb [63:0] $end
$var reg 5 % addr_rd_tb [4:0] $end
$var reg 5 & addr_rs1_tb [4:0] $end
$var reg 5 ' addr_rs2_tb [4:0] $end
$var reg 64 ( rs1_tb [63:0] $end
$var reg 64 ) rs2_tb [63:0] $end
$upscope $end

$enddefinitions $end

#0
$dumpvars
0!
1"
0#
bxxxxx %
b00000 &
b00000 '
b0000000000000000000000000000000000000000000000000000000000000000 $
bxxxxxxxxxxxxxxxxxxxxxxxxxxxxxxxxxxxxxxxxxxxxxxxxxxxxxxxxxxxxxxxx (
bxxxxxxxxxxxxxxxxxxxxxxxxxxxxxxxxxxxxxxxxxxxxxxxxxxxxxxxxxxxxxxxx )
$end
#500000
1!
b0000000000000000000000000000000000000000000000000000000000000000 )
b0000000000000000000000000000000000000000000000000000000000000000 (
#1000000
0"
b00001 %
b1111111111111111111111111111111111111111111111111111111111111111 $
1#
0!
#1500000
1!
#2000000
0#
b00010 %
1#
0!
#2500000
1!
#3000000
0#
b00011 %
1#
0!
#3500000
1!
#4000000
0#
b00100 %
1#
0!
#4500000
1!
#5000000
0#
b00101 %
1#
0!
#5500000
1!
#6000000
0#
b00110 %
1#
0!
#6500000
1!
#7000000
0#
b00111 %
1#
0!
#7500000
1!
#8000000
0#
b01000 %
1#
0!
#8500000
1!
#9000000
0#
b01001 %
1#
0!
#9500000
1!
#10000000
0#
b01010 %
1#
0!
#10500000
1!
#11000000
0#
b01011 %
1#
0!
#11500000
1!
#12000000
0#
b01100 %
1#
0!
#12500000
1!
#13000000
0#
b01101 %
1#
0!
#13500000
1!
#14000000
0#
b01110 %
1#
0!
#14500000
1!
#15000000
0#
b01111 %
1#
0!
#15500000
1!
#16000000
0#
b10000 %
1#
0!
#16500000
1!
#17000000
0#
b10001 %
1#
0!
#17500000
1!
#18000000
0#
b10010 %
1#
0!
#18500000
1!
#19000000
0#
b10011 %
1#
0!
#19500000
1!
#20000000
0#
b10100 %
1#
0!
#20500000
1!
#21000000
0#
b10101 %
1#
0!
#21500000
1!
#22000000
0#
b10110 %
1#
0!
#22500000
1!
#23000000
0#
b10111 %
1#
0!
#23500000
1!
#24000000
0#
b11000 %
1#
0!
#24500000
1!
#25000000
0#
b11001 %
1#
0!
#25500000
1!
#26000000
0#
b11010 %
1#
0!
#26500000
1!
#27000000
0#
b11011 %
1#
0!
#27500000
1!
#28000000
0#
b11100 %
1#
0!
#28500000
1!
#29000000
0#
b11101 %
1#
0!
#29500000
1!
#30000000
0#
b11110 %
1#
0!
#30500000
1!
#31000000
0#
b11111 %
1#
0!
#31500000
1!
#32000000
0#
b11111 '
b1111111111111111111111111111111111111111111111111111111111111111 )
0!
#32500000
b00001 &
b1111111111111111111111111111111111111111111111111111111111111111 (
b00000 '
b0000000000000000000000000000000000000000000000000000000000000000 )
1!
#33000000
b00010 &
b00001 '
b1111111111111111111111111111111111111111111111111111111111111111 )
0!
#33500000
b00011 &
b00010 '
1!
#34000000
b00100 &
b00011 '
0!
#34500000
b00101 &
b00100 '
1!
#35000000
b00110 &
b00101 '
0!
#35500000
b00111 &
b00110 '
1!
#36000000
b01000 &
b00111 '
0!
#36500000
b01001 &
b01000 '
1!
#37000000
b01010 &
b01001 '
0!
#37500000
b01011 &
b01010 '
1!
#38000000
b01100 &
b01011 '
0!
#38500000
b01101 &
b01100 '
1!
#39000000
b01110 &
b01101 '
0!
#39500000
b01111 &
b01110 '
1!
#40000000
b10000 &
b01111 '
0!
#40500000
b10001 &
b10000 '
1!
#41000000
b10010 &
b10001 '
0!
#41500000
b10011 &
b10010 '
1!
#42000000
b10100 &
b10011 '
0!
#42500000
b10101 &
b10100 '
1!
#43000000
b10110 &
b10101 '
0!
#43500000
b10111 &
b10110 '
1!
#44000000
b11000 &
b10111 '
0!
#44500000
b11001 &
b11000 '
1!
#45000000
b11010 &
b11001 '
0!
#45500000
b11011 &
b11010 '
1!
#46000000
b11100 &
b11011 '
0!
#46500000
b11101 &
b11100 '
1!
#47000000
b11110 &
b11101 '
0!
#47500000
b11111 &
b11110 '
1!
